<svg xmlns="http://www.w3.org/2000/svg" width="42.862" height="27.009" viewBox="0 0 42.862 27.009">
  <path id="electronics" d="M42.417,2.409a.909.909,0,0,0-.9-.016l-9.834,5.37V4.54A4.546,4.546,0,0,0,27.144,0H4.541A4.546,4.546,0,0,0,0,4.54V22.468a4.546,4.546,0,0,0,4.54,4.54h22.6a4.546,4.546,0,0,0,4.54-4.54V19.3l9.835,5.37a.908.908,0,0,0,1.343-.8V3.19a.908.908,0,0,0-.445-.781ZM29.867,22.468a2.727,2.727,0,0,1-2.724,2.724H4.541a2.727,2.727,0,0,1-2.724-2.724V4.54A2.727,2.727,0,0,1,4.541,1.816h22.6A2.728,2.728,0,0,1,29.868,4.54Zm11.179-.121-9.362-5.112v-7.4L41.046,4.72Zm0,0" transform="translate(0 0)" fill="#6269b1"/>
</svg>
