<svg xmlns="http://www.w3.org/2000/svg" width="48" height="36" viewBox="0 0 48 36">
  <path id="email_icn" d="M5.684,36A5.571,5.571,0,0,1,0,30.424V5.581A5.573,5.573,0,0,1,5.684,0H42.3A5.647,5.647,0,0,1,48,5.581V30.424A5.645,5.645,0,0,1,42.3,36ZM2,5.581V30.424A3.592,3.592,0,0,0,5.684,34H42.3A3.6,3.6,0,0,0,46,30.424V5.581A3.6,3.6,0,0,0,42.3,2H5.684A3.6,3.6,0,0,0,2,5.581ZM41.143,31.054l-10.62-8.834A1,1,0,0,1,31.8,20.682l10.62,8.835a1,1,0,0,1-1.279,1.538Zm-36.137-.13a1,1,0,0,1,.129-1.408l10.621-8.835a1,1,0,0,1,1.28,1.539L6.414,31.054a1,1,0,0,1-1.408-.13Zm15.954-10.2L5.106,6.465A1,1,0,0,1,6.443,4.976L22.3,19.233a2.267,2.267,0,0,0,2.963,0L41.113,4.976a1,1,0,0,1,1.338,1.489L26.6,20.721a4.265,4.265,0,0,1-5.637,0Z" fill="#2cc1d7"/>
</svg>
