<svg xmlns="http://www.w3.org/2000/svg" width="32.663" height="29.25" viewBox="0 0 32.663 29.25">
  <g id="funds" transform="translate(0 -23.098)">
    <path id="Path_10177" data-name="Path 10177" d="M24.972,35.392c0-.006,0-.012,0-.018a.73.73,0,0,0-.018-.089h0a.737.737,0,0,0-.028-.081l-.01-.023c-.009-.019-.018-.038-.028-.057l-.014-.024-.007-.013c-.011-.017-.023-.034-.035-.05l-.006-.009a.717.717,0,0,0-.059-.067l-.012-.012a.744.744,0,0,0-.057-.049l-.015-.012a.748.748,0,0,0-.082-.053L13.711,28.645,19.979,24.7l10.509,5.973-4.426,2.787a.739.739,0,1,0,.787,1.251l5.47-3.445A.739.739,0,0,0,32.291,30l-11.966-6.8a.739.739,0,0,0-.759.017l-7.682,4.837,0,0L8.04,30.469l-.005,0L.348,35.313a.739.739,0,0,0,.029,1.268l11.966,6.8a.739.739,0,0,0,.759-.017l5.47-3.445a.739.739,0,1,0-.787-1.251l-5.1,3.209L2.18,35.906l6.268-3.947,11.208,6.371v8.438a.739.739,0,0,0,1.133.625l3.844-2.42a.739.739,0,0,0,.345-.625V35.479s0-.008,0-.013Q24.976,35.429,24.972,35.392ZM21.134,45.429V37.9a.739.739,0,0,0-.374-.642L9.867,31.065l2.425-1.527L22.8,35.512l-.92.579a.739.739,0,1,0,.787,1.251l.832-.524v7.121Z" transform="translate(-0.002 0)" fill="#a4a4a4"/>
    <path id="Path_10178" data-name="Path 10178" d="M353.79,155.255l-5.47,3.445a.739.739,0,1,0,.787,1.251l5.47-3.445a.739.739,0,1,0-.787-1.251Z" transform="translate(-322.26 -122.286)" fill="#a4a4a4"/>
    <path id="Path_10179" data-name="Path 10179" d="M17.782,230.33l-5.1,3.209L1.1,226.956a.739.739,0,0,0-.73,1.285l11.966,6.8a.739.739,0,0,0,.759-.017l5.47-3.445a.739.739,0,0,0-.787-1.251Z" transform="translate(0 -188.704)" fill="#a4a4a4"/>
    <path id="Path_10180" data-name="Path 10180" d="M353.79,195.255l-5.47,3.445a.739.739,0,1,0,.787,1.251l5.47-3.445a.739.739,0,1,0-.787-1.251Z" transform="translate(-322.26 -159.33)" fill="#a4a4a4"/>
    <path id="Path_10181" data-name="Path 10181" d="M17.782,270.33l-5.1,3.209L1.1,266.956a.739.739,0,0,0-.73,1.285l11.966,6.8a.739.739,0,0,0,.759-.017l5.47-3.445a.739.739,0,0,0-.787-1.251Z" transform="translate(0 -225.748)" fill="#a4a4a4"/>
    <path id="Path_10182" data-name="Path 10182" d="M353.79,235.255l-5.47,3.445a.739.739,0,1,0,.787,1.251l5.47-3.445a.739.739,0,1,0-.787-1.251Z" transform="translate(-322.26 -196.375)" fill="#a4a4a4"/>
    <path id="Path_10183" data-name="Path 10183" d="M17.782,310.33l-5.1,3.209L1.1,306.956a.739.739,0,0,0-.73,1.285l11.966,6.8a.739.739,0,0,0,.759-.017l5.47-3.445a.739.739,0,0,0-.787-1.251Z" transform="translate(0 -262.792)" fill="#a4a4a4"/>
  </g>
</svg>
