<svg xmlns="http://www.w3.org/2000/svg" width="38.607" height="40.285" viewBox="0 0 38.607 40.285">
  <g id="Group_20185" data-name="Group 20185" transform="translate(-1572.111 -88.376)">
    <path id="Union_4" data-name="Union 4" d="M-3008.929,3555.214h-7.133a2.941,2.941,0,0,1-2.938-2.938,2.926,2.926,0,0,1,1.027-2.23,11.256,11.256,0,0,0,4.009-8.616v-4.68a11.762,11.762,0,0,1,11.75-11.75,11.683,11.683,0,0,1,2.674.319,11.666,11.666,0,0,0-1,4.717,11.758,11.758,0,0,0,10.084,11.617,11.24,11.24,0,0,0,3.979,8.378,2.943,2.943,0,0,1,1.044,2.245,2.941,2.941,0,0,1-2.938,2.938h-7.133a6.714,6.714,0,0,1-6.715,6.714A6.714,6.714,0,0,1-3008.929,3555.214Z" transform="translate(4591.11 -3433.267)" fill="#f6f6f6"/>
    <path id="Path_15777" data-name="Path 15777" d="M294.118,8.393A8.393,8.393,0,1,1,285.725,0,8.393,8.393,0,0,1,294.118,8.393Zm0,0" transform="translate(1316.6 88.376)" fill="#f44336"/>
  </g>
</svg>
