<svg id="love" xmlns="http://www.w3.org/2000/svg" width="30.34" height="41.587" viewBox="0 0 30.34 41.587">
  <g id="Group_19737" data-name="Group 19737">
    <path id="Path_10375" data-name="Path 10375" d="M80.721,6.156,80.408,1.28a1.188,1.188,0,0,0-.295-.7,1.259,1.259,0,0,0-.7-.268L74.542,0a.893.893,0,0,0-.963.816s0,.009,0,.014a.893.893,0,0,0,.83.947l3.018.2L73.64,5.763a9.724,9.724,0,0,0-15.8,5.8A9.733,9.733,0,0,0,59.228,30.72v4.134H56.183a.893.893,0,0,0,0,1.786h3.054v4.054a.893.893,0,0,0,1.786,0V36.64h3.054a.893.893,0,1,0,0-1.786H61.023V30.72a9.751,9.751,0,0,0,8.688-8.036A9.724,9.724,0,0,0,74.917,7.031l3.8-3.8.214,3.045a.895.895,0,0,0,1.788-.051C80.723,6.2,80.723,6.177,80.721,6.156ZM60.13,28.979A7.956,7.956,0,0,1,57.7,13.451,9.715,9.715,0,0,0,67.425,23h.4A7.965,7.965,0,0,1,60.13,28.979Zm7.947-7.8h-.643a7.938,7.938,0,0,1-7.949-7.927q0-.09,0-.18h.643a7.965,7.965,0,0,1,7.956,7.956C68.086,21.077,68.077,21.121,68.077,21.175Zm7.058-6.025a7.946,7.946,0,0,1-2.085,3.668v.063a7.912,7.912,0,0,1-3.188,1.911,9.742,9.742,0,0,0-9.733-9.545h-.4a7.947,7.947,0,1,1,15.407,3.9Z" transform="translate(-50.384 -0.001)" fill="#2fc2d8"/>
  </g>
</svg>
