<svg xmlns="http://www.w3.org/2000/svg" width="28.875" height="27.541" viewBox="0 0 28.875 27.541">
  <g id="star-half-empty" transform="translate(-0.001 -10.977)">
    <path id="Path_419" data-name="Path 419" d="M28.842,21.45q-.156-.477-.937-.6l-8.712-1.267-3.9-7.9q-.365-.712-.85-.711-.5,0-.85.711l-3.9,7.9L.972,20.851q-.781.121-.937.6t.4,1.033l6.317,6.143L5.259,37.3a1.347,1.347,0,0,0,.1.894.638.638,0,0,0,.59.321,1.546,1.546,0,0,0,.694-.209l7.792-4.1,7.792,4.1a1.552,1.552,0,0,0,.694.209.638.638,0,0,0,.59-.321,1.35,1.35,0,0,0,.1-.894l-1.492-8.677,6.3-6.143Q29,21.927,28.842,21.45Zm-8.26,5.579-.85.816.208,1.145,1.041,6.161-5.518-2.916L14.439,31.7V14.986L17.2,20.574l.52,1.041,1.146.174,6.178.9Z" transform="translate(0)" fill="#fac917"/>
  </g>
</svg>
