<svg xmlns="http://www.w3.org/2000/svg" width="38.422" height="48.108" viewBox="0 0 38.422 48.108">
  <g id="telephone-call" transform="matrix(0.966, -0.259, 0.259, 0.966, 0.707, 7.712)">
    <path id="Path_10378" data-name="Path 10378" d="M24.14,29.5,27.321,37.4a.563.563,0,0,1-.195.668c-2.866,2.056-5.56,3.1-8.008,3.1-5.914,0-8.374-6.115-8.392-6.168L1.24,14.557C1.145,14.382-1.1,10.2.686,6.121c1.268-2.9,4.22-4.955,8.777-6.1a.571.571,0,0,1,.649.309L14.2,9.12a.562.562,0,0,1-.193.7L9.792,12.7a.541.541,0,0,0-.171.625l7.441,16.028a.548.548,0,0,0,.477.287,1.074,1.074,0,0,0,.216-.033l5.819-.456A.553.553,0,0,1,24.14,29.5Zm-6.191,1.21a1.5,1.5,0,0,1-.4.053,1.7,1.7,0,0,1-1.512-.938L8.6,13.8a1.665,1.665,0,0,1,.557-2.028l3.816-2.61L9.288,1.227C5.348,2.3,2.8,4.1,1.722,6.566c-1.541,3.519.436,7.319.525,7.485l9.517,20.5c.021.055,2.2,5.481,7.357,5.481A12.683,12.683,0,0,0,26.109,37.4l-2.86-7.1Z" transform="translate(0 0)" fill="#32c3d8" stroke="#31c2d8" stroke-width="1"/>
  </g>
</svg>
