<svg xmlns="http://www.w3.org/2000/svg" width="69.689" height="41.813" viewBox="0 0 69.689 41.813">
  <g id="Group_19643" data-name="Group 19643" transform="translate(-312 -2722.494)">
    <g id="Group_19642" data-name="Group 19642">
      <path id="Path_10314" data-name="Path 10314" d="M48.782,12H20.907a20.907,20.907,0,0,0,0,41.813H48.782a20.907,20.907,0,0,0,0-41.813Zm0,39.49H20.907a18.584,18.584,0,0,1,0-37.167H48.782a18.584,18.584,0,0,1,0,37.167Z" transform="translate(312 2710.494)" fill="#2cc1d7"/>
      <path id="Path_10315" data-name="Path 10315" d="M44.1,17A15.1,15.1,0,1,0,59.2,32.1,15.117,15.117,0,0,0,44.1,17Zm0,27.876A12.776,12.776,0,1,1,56.876,32.1,12.791,12.791,0,0,1,44.1,44.876Z" transform="translate(316.683 2711.302)" fill="#6367ae"/>
    </g>
    <path id="Path_10316" data-name="Path 10316" d="M17.161,21A1.16,1.16,0,0,0,16,22.161V40.745a1.161,1.161,0,1,0,2.323,0V22.161A1.16,1.16,0,0,0,17.161,21Z" transform="translate(314.584 2711.948)" fill="#2cc1d7"/>
  </g>
</svg>
