<svg xmlns="http://www.w3.org/2000/svg" width="96.547" height="100.785" viewBox="0 0 96.547 100.785">
  <g id="Group_20187" data-name="Group 20187" transform="translate(-367.453 -1518)">
    <path id="Path_10259" data-name="Path 10259" d="M109.237,100.517a1.752,1.752,0,0,0-.2-.161l-.062-.053L95.014,86.337l.3-.349a25.076,25.076,0,0,0-1.389-33.774,24.8,24.8,0,0,0-17.642-7.306,26,26,0,0,0-2.673.143l-.85.087.344-.782a26.323,26.323,0,0,0,2.362-10.631v-.057l.013-.056c.024-.1,2.382-10.588-3.419-20.316l-.222-.369a27.271,27.271,0,0,0-4.9-5.851C64.9,5.237,59.368,2.5,52.447,2.5A25.629,25.629,0,0,0,37.729,7.119c-8.7,5.959-8.717,20.426-8.651,22.939.315.064.828.157,1.512.246l.476.062-.045.478c-.091.967-.138,1.936-.138,2.882a29.44,29.44,0,0,0,6.253,17.258l.1.134-.045,6.314-.036.089c-.019.046-.038.088-.061.134-.6,1.179-2.732,3.118-9.454,5.681-.6.226-1.14.486-1.77.788a31.437,31.437,0,0,1-6.1,2.278l-.292.085a9.182,9.182,0,0,0-6.318,8.723V86.322H57.538l.148.167c.308.346.628.686.952,1.01a24.95,24.95,0,0,0,33.73,1.426l.349-.3,13.85,13.85.018-.018.351.35a1.624,1.624,0,0,0,2.3-2.294ZM70.549,17.393l.288.7a24.928,24.928,0,0,1,1.373,4.6l.373,1.894-1.241-1.479-.112-.131c-.043-.05-.086-.1-.128-.15a11.041,11.041,0,0,0-2.4-2.046l-.379-.237.2-.4a8.5,8.5,0,0,1,1.5-2.21Zm-38.19,9.843.031-.5A38.739,38.739,0,0,1,33,21.822h0c.763-3.959,2.521-9.259,6.559-12.023A22.412,22.412,0,0,1,52.447,5.746,23.536,23.536,0,0,1,60.3,7.1a14.238,14.238,0,0,1,4.454,2.382,24.388,24.388,0,0,1,4.006,4.658l.252.383-.361.282A11.144,11.144,0,0,0,65.419,19.1l-.154.344-.373-.056a11.065,11.065,0,0,0-1.641-.122,17.851,17.851,0,0,0-8.794,2.752A39.193,39.193,0,0,1,35.04,27.336c-.72,0-1.456-.023-2.185-.069Zm1.771,6.49c0-.9.045-1.809.135-2.7l.045-.447h.449l.148,0,.133,0a42.41,42.41,0,0,0,21.027-5.749,15.039,15.039,0,0,1,7.184-2.324c4.915,0,7,4.293,8.144,7.522a7.773,7.773,0,0,0,.675,1.446l.063.1.009.121c.049.685.073,1.346.073,2.02a24.676,24.676,0,0,1-3.574,12.242l-.094.162-.178.059A25,25,0,0,0,54.267,58.1l-.12.225-.253.034a5.507,5.507,0,0,1-.721.051c-2.577,0-7.379-2.313-11.832-7.391C36.759,45.8,34.13,39.5,34.13,33.726ZM52.858,61.1l-.465,1.542a24.885,24.885,0,0,0-.866,4.1l-.054.436H50.058L49.4,63.89ZM45.537,83.076H16.41V75.208a5.956,5.956,0,0,1,4.036-5.62l.194-.058a34.8,34.8,0,0,0,6.639-2.482c.56-.269,1.044-.5,1.521-.679a34.852,34.852,0,0,0,8.815-4.528l.369-.29L43.95,68.3l2.6-2.107.608,3.052ZM44.325,63.82l-4.272-4.831.381-.843.022-3.3.829.774a27.335,27.335,0,0,0,6.422,4.554l.7.344Zm4.481,19.256L50.29,70.418h1.043l.02.477A25,25,0,0,0,54.668,82.33l.431.746ZM91.624,85.2h0a21.7,21.7,0,1,1,6.358-15.345A21.549,21.549,0,0,1,91.624,85.2Z" transform="translate(354.291 1515.5)" fill="#6367ae"/>
    <g id="Group_19608" data-name="Group 19608" transform="translate(413.606 1568.394)">
      <g id="Group_19607" data-name="Group 19607">
        <path id="Path_10260" data-name="Path 10260" d="M262.293,256a16.964,16.964,0,0,0-16.964,16.962,2.121,2.121,0,1,0,4.241,0,12.735,12.735,0,0,1,12.723-12.723,2.12,2.12,0,1,0,0-4.24Z" transform="translate(-245.329 -256.001)" fill="#2cc1d7"/>
      </g>
    </g>
  </g>
</svg>
